%YAML 1.1
%TAG !u! tag:unity3d.com,2011:
--- !u!1045 &1
EditorBuildSettings:
  m_ObjectHideFlags: 0
  serializedVersion: 2
  m_Scenes:
  - enabled: 1
    path: Assets/Scenes/Main Menu.unity
    guid: 64d5e16880ab4c0448612d334129b510
  - enabled: 1
    path: Assets/Scenes/Character Selection.unity
    guid: d3f7062d0e5c9fd4483cd8e729f0f49b
  - enabled: 1
    path: Assets/Scenes/VisualsTestLevel.unity
    guid: 1674f25d86c91454d98aef311d12f15a
